{
  "base": "5.1.8",
  "coverage": "5.1.8",
  "doc": "5.1.8",
  "git": "5.1.8",
  "license": "5.1.8",
  "pysetup": "5.1.8",
  "reqs": "5.1.8",
  "sphinx": "5.1.8",
  "src": "5.1.8",
  "test": "5.1.8",
  "version": "5.1.8"
}