{
  ".coveragerc": {
    "coverage": "0CjtOnJeJbaG4k7nH7r7g8haKQF7KLd44Aoh90SbqvhAdn1N75FJ/kSQKDwbdoOYJ2nimzZsPwoiArsvFXAEjQ=="
  },
  ".gitignore": {
    "git": "AOWkxto0F96aUNMLvIFev7dc1QeSp8UijA2yc7Ruowk66q+8afnLHnfFT6DO6efLnz++9DBuEBFe4t6IwsA07A=="
  },
  "AUTHORS.rst": {
    "doc.authors": "eJLAS+nlwN/fXE3A4/Q7Fo4cje7HsjM+Pj37nYmhZhr1V4YxmbHlycGU41avi3gLzOoCaWF8wswHfKyQVsequQ==",
    "doc.contributors": "MJbMC5sH1Cpy9qVbhblqxDrKG6Ps3D6bnhTuu5v4kRpddyFASAwX1Soq+KgfsjZCWVoyf2jcY9nA/LaUJIq1mA=="
  },
  "CONTRIBUTING.rst": {},
  "HISTORY.rst": {},
  "LICENSE": {
    "license": "Cua7AfXk18SxwWiclEigxpqAs+26A7ApdtRrDh/jNv2+Cqu9I1VPVcxGbZ0A+kp4GO3zLMPdS/XvVnFwsr5gVA=="
  },
  "MANIFEST.in": {
    "pysetup": "JPVxfp8x1UouMwqNwoDeTrDoD28erGZaT2bnIAPaZ9t/w/vASLCnbk7PXAQDVNN8YFimMv7HnZ0BA6Fji5n+4g=="
  },
  "README.rst": {
    "doc": "vmiIOMqGhuXJBom/KrWFzvETfJmbSMcLkvZ6XDTcFWl7XRHJgu1tcb4eHn97TgcziEqpfD96M5qO0DV3z3S+CQ=="
  },
  "doc/Makefile": {
    "sphinx": "EsaaEppe6Kw79WHpUyBigedrIraP6YlQDBg9Fu6jue32Rt6mCQkk2zH7gfOVqjT5bNpnXN90UfLkrzHVJCo6UQ=="
  },
  "doc/_static/nonempty.txt": {},
  "doc/conf.py": {
    "sphinx": "+zFPaTXOBZvAuKk0e2NhVPMYtFVdjVFFmPCquyYcjwHgr/j7Kfcv+jVgGXb47EA5Y1PFCv6JUW1u65qUcpfTDA=="
  },
  "doc/make.bat": {
    "sphinx": "E9sFsnXAm9uPYBn7f0Qb6edct0UKizsXRIJyjZISRCjHbT2HldXK4GIj1yO69R/OVSfnmdAX5lzXQ4wONQNFgA=="
  },
  "dvlpt_requirements.txt": {
    "pysetup": "4etuayqoZFQ8pXPqNqFz0rbvIHyAak47z3lnneHhdf0tXEh7/OCKBnfhZp9BWwKCfIpME9NpJ2UV4uMa6bVN6w=="
  },
  "requirements.txt": {
    "pysetup": "ZxDxfMKfe9MsHOBhINZ0v9YGJ5leiCfuK6dTyPprDcYRRAviI4HvcMpJObKzQjhC30HFqMiJaVlZZIi/ovSexg=="
  },
  "requirements_minimal.txt": {
    "reqs": "AWuoxM/eZa+Zy1+ouKN+Lrc/SBs640mRZm3y4E/rbAOGZuvR7CtvYjlndWAzxwLd5fQj99R6tu0YJ/9TeDcx9w=="
  },
  "setup.cfg": {
    "sphinx": "mYLeHXWNqXwTk9eWxY4wTrltnDTrAHQvl0l+kosuIfAgrbAuhWMgySq4WR2Y855Q5HDAtGZY7Pnt+BAU6niXIg==",
    "test.nose": "XwopQeyQQG6EifrNG6IqIyLkjKuRA3jK7QAoAKTtgra7CSbTNzQLGoljLWVC/pepd5uWc9Q0WgORV0rHN/dhlQ==",
    "test.pytest": "vmiIOMqGhuXJBom/KrWFzvETfJmbSMcLkvZ6XDTcFWl7XRHJgu1tcb4eHn97TgcziEqpfD96M5qO0DV3z3S+CQ==",
    "wheel": "vUJZkCvbK4LQuEURneKnX/SNIwhJ9/9EaT5T6Uw1K1fauKFFiHnq1DTDES7cgBD0OANelyvwCCZO/rV4Iok+ag=="
  },
  "setup.py": {
    "pysetup.call": "t30iIuCMd/sWxStR2XNYb8bCBgwanhKt8YYn2VKACyAqL5cKFRUWpVRIpAR+uxXUZ9PYYy2csMmECcONnRZE8w==",
    "pysetup.kwds": "IfQ400QWvOVvIiL3KCVK1aAeD/SpMzAqPmhsXo5h3JssTnjP0vYJIPI9tvs400R3te4cGQjZzK5C8gnD3baTIw=="
  },
  "src/treex/__init__.py": {
    "src": "L2dZgUBRC5qv3o09+1CbMcgYfQtR1ZNSvP8KlP8REQazZiAQAktALjpCC2ijdxvKPv/tN9KsZrzNW+lZMszSfg==",
    "version": "skSCnavrYKIlfN9Mpi+cANbU8gXulaKdlHryvkjkoSSpsag1I66dM+6JHm1aOdmKYU0rZNNgcIamCMbIL7IeMg=="
  },
  "src/treex/version.py": {
    "version": "7GF080vKpXQJnfpn5dIU/Wd+7CKUKTI5DPGNa4gYarMJV+CcNKiiA3XnAipKbumfLGe2h3ridgWZJjLyvtqrkA=="
  }
}