{
  "_pkglts": {
    "auto_install": true,
    "install_front_end": "stdout",
    "use_prompts": false,
    "version": 12
  },
  "base": {
    "authors": [
      [
        "moi",
        "moi@email.com"
      ]
    ],
    "namespace": null,
    "namespace_method": "pkg_util",
    "pkgname": ".pkglts",
    "url": null
  },
  "doc": {
    "description": "belle petite description",
    "fmt": "rst",
    "keywords": []
  },
  "license": {
    "name": "cecill-c",
    "organization": "organization",
    "project": "{{ base.pkgname }}",
    "year": 2018
  },
  "sphinx": {
    "autodoc_dvlpt": true,
    "build_dir": "build/sphinx",
    "theme": "default"
  },
  "test": {
    "suite_name": "pytest"
  }
}